…
### Extract projections

For kernel FDA (kfda), we can get the kernel embedding projections for
each sample condition with respect to the a given truncation value:

``` r
proj <- get_proj(kt_1, contrib = FALSE, t_max = 50)
names(proj)
#> [1] "0H"     "48HREV"
as_tibble(proj[[1]])
#> # A tibble: 173 × 50
#>      `1`    `2`    `3`    `4`    `5`    `6`    `7`    `8`    `9`   `10`   `11`
#>    <dbl>  <dbl>  <dbl>  <dbl>  <dbl>  <dbl>  <dbl>  <dbl>  <dbl>  <dbl>  <dbl>
#>  1 -2.48  -55.8 -171.  -218.  -213.  -219.  -227.  -243.  -249.  -242.  -244. 
#>  2 -3.78  -80.4 -121.  -103.  -136.  -172.  -185.  -197.  -201.  -196.  -214. 
#>  3 -6.83   49.9  124.   -47.3  -36.2  -26.1  -30.3  -44.2  -47.9  -33.3  -34.0
#>  4 -8.30   59.5   40.1 -104.   -96.6  -70.4  -77.6  -76.6  -84.4  -79.3  -83.2
#>  5 -2.09 -117.  -131.  -369.  -366.  -394.  -399.  -391.  -397.  -376.  -357. 
#>  6  1.26 -127.  -125.  -176.  -210.  -182.  -192.  -196.  -198.  -197.  -198. 
#>  7 -1.86  -56.4  -17.9  -27.0  -47.1  -16.0  -27.5  -40.6  -43.6  -32.0  -39.7
#>  8 -4.82   23.8  -51.1 -139.   -83.9  -46.7  -53.7  -48.0  -54.7  -63.2  -67.6
#>  9 -5.71  -78.3 -169.  -217.  -217.  -247.  -257.  -270.  -277.  -264.  -270. 
#> 10  9.60   16.6  -16.2   56.4   40.1   76.7   69.8   70.0   70.4   79.3   70.7
#> # ℹ 163 more rows
#> # ℹ 39 more variables: `12` <dbl>, `13` <dbl>, `14` <dbl>, `15` <dbl>,
#> #   `16` <dbl>, `17` <dbl>, `18` <dbl>, `19` <dbl>, `20` <dbl>, `21` <dbl>,
#> #   `22` <dbl>, `23` <dbl>, `24` <dbl>, `25` <dbl>, `26` <dbl>, `27` <dbl>,
#> #   `28` <dbl>, `29` <dbl>, `30` <dbl>, `31` <dbl>, `32` <dbl>, `33` <dbl>,
#> #   `34` <dbl>, `35` <dbl>, `36` <dbl>, `37` <dbl>, `38` <dbl>, `39` <dbl>,
#> #   `40` <dbl>, `41` <dbl>, `42` <dbl>, `43` <dbl>, `44` <dbl>, `45` <dbl>, …
as_tibble(proj[[2]])
#> # A tibble: 171 × 50
#>        `1`   `2`     `3`     `4`     `5`    `6`    `7`    `8`    `9`    `10`
#>      <dbl> <dbl>   <dbl>   <dbl>   <dbl>  <dbl>  <dbl>  <dbl>  <dbl>   <dbl>
#>  1   9.80   73.0    5.70   31.4    15.6    29.6   30.3   16.6   11.4    8.20
#>  2  -6.42  -31.1   14.6    31.3    35.5    44.2   37.5   33.5   26.7    6.19
#>  3   0.552 -32.8    9.09 -117.    -69.0   -61.9  -70.1  -84.0  -92.5  -74.3 
#>  4 -13.1    16.6   40.7     8.31    2.40   51.4   47.6   39.7   35.3   43.0 
#>  5   1.41   20.0  194.    117.    150.    161.   151.   146.   148.   182.  
#>  6  -2.37   67.4  223.    223.    220.    271.   263.   277.   273.   288.  
#>  7  -3.06   39.5  147.     49.6    79.1    84.2   76.5   69.0   65.3   63.1 
#>  8  -7.95   72.0  240.    156.    207.    234.   233.   228.   222.   220.  
#>  9   1.45  -32.1 -113.   -186.   -120.   -130.  -134.  -142.  -149.  -173.  
#> 10  -9.97   23.2   84.3    86.3   118.    178.   169.   168.   164.   175.  
#> # ℹ 161 more rows
#> # ℹ 40 more variables: `11` <dbl>, `12` <dbl>, `13` <dbl>, `14` <dbl>,
#> #   `15` <dbl>, `16` <dbl>, `17` <dbl>, `18` <dbl>, `19` <dbl>, `20` <dbl>,
#> #   `21` <dbl>, `22` <dbl>, `23` <dbl>, `24` <dbl>, `25` <dbl>, `26` <dbl>,
#> #   `27` <dbl>, `28` <dbl>, `29` <dbl>, `30` <dbl>, `31` <dbl>, `32` <dbl>,
#> #   `33` <dbl>, `34` <dbl>, `35` <dbl>, `36` <dbl>, `37` <dbl>, `38` <dbl>,
#> #   `39` <dbl>, `40` <dbl>, `41` <dbl>, `42` <dbl>, `43` <dbl>, `44` <dbl>, …
```

And we can also get the corresponding contributions to the kernel
embedding projections for each sample condition (using
`contrib = TRUE`):

``` r
proj_contrib <- get_proj(kt_1, contrib = TRUE, t_max = 50)
names(proj_contrib)
#> [1] "0H"     "48HREV"
as_tibble(proj_contrib[[1]])
#> # A tibble: 173 × 50
#>      `1`     `2`     `3`     `4`     `5`    `6`    `7`     `8`    `9`  `10`
#>    <dbl>   <dbl>   <dbl>   <dbl>   <dbl>  <dbl>  <dbl>   <dbl>  <dbl> <dbl>
#>  1 -2.48  -53.3  -116.    -46.8    5.21   -5.75  -8.04 -16.5   -5.99   7.00
#>  2 -3.78  -76.6   -40.2    18.0  -33.6   -35.8  -13.4  -11.7   -4.39   5.64
#>  3 -6.83   56.7    74.1  -171.    11.2    10.0   -4.18 -13.9   -3.64  14.6 
#>  4 -8.30   67.8   -19.4  -145.     7.86   26.2   -7.18   0.969 -7.75   5.11
#>  5 -2.09 -115.    -14.5  -237.     2.42  -27.2   -5.70   8.47  -5.77  20.2 
#>  6  1.26 -129.      2.06  -50.7  -33.8    27.8  -10.2   -3.81  -2.45   1.32
#>  7 -1.86  -54.6    38.5    -9.04 -20.1    31.1  -11.6  -13.1   -2.96  11.6 
#>  8 -4.82   28.6   -74.9   -88.2   55.4    37.2   -6.98   5.70  -6.72  -8.41
#>  9 -5.71  -72.6   -90.3   -48.5    0.203 -29.7  -10.6  -12.4   -7.03  12.6 
#> 10  9.60    7.04  -32.9    72.7  -16.3    36.6   -6.87   0.126  0.442  8.92
#> # ℹ 163 more rows
#> # ℹ 40 more variables: `11` <dbl>, `12` <dbl>, `13` <dbl>, `14` <dbl>,
#> #   `15` <dbl>, `16` <dbl>, `17` <dbl>, `18` <dbl>, `19` <dbl>, `20` <dbl>,
#> #   `21` <dbl>, `22` <dbl>, `23` <dbl>, `24` <dbl>, `25` <dbl>, `26` <dbl>,
#> #   `27` <dbl>, `28` <dbl>, `29` <dbl>, `30` <dbl>, `31` <dbl>, `32` <dbl>,
#> #   `33` <dbl>, `34` <dbl>, `35` <dbl>, `36` <dbl>, `37` <dbl>, `38` <dbl>,
#> #   `39` <dbl>, `40` <dbl>, `41` <dbl>, `42` <dbl>, `43` <dbl>, `44` <dbl>, …
as_tibble(proj_contrib[[2]])
#> # A tibble: 171 × 50
#>        `1`   `2`   `3`      `4`    `5`    `6`     `7`    `8`   `9`   `10`
#>      <dbl> <dbl> <dbl>    <dbl>  <dbl>  <dbl>   <dbl>  <dbl> <dbl>  <dbl>
#>  1   9.80   63.2 -67.3   25.7   -15.9   14.1    0.722 -13.8  -5.19  -3.18
#>  2  -6.42  -24.7  45.7   16.7     4.20   8.72  -6.73   -3.95 -6.85 -20.5 
#>  3   0.552 -33.4  41.9 -126.     48.3    7.09  -8.18  -13.9  -8.50  18.2 
#>  4 -13.1    29.7  24.1  -32.4    -5.90  49.0   -3.78   -7.87 -4.42   7.73
#>  5   1.41   18.6 174.   -76.9    32.6   11.0  -10.0    -4.47  1.28  33.9 
#>  6  -2.37   69.8 156.     0.297  -3.12  50.4   -7.97   13.9  -3.56  15.2 
#>  7  -3.06   42.6 107.   -97.4    29.5    5.07  -7.66   -7.50 -3.76  -2.18
#>  8  -7.95   80.0 168.   -83.1    50.5   27.5   -1.30   -5.15 -6.40  -1.36
#>  9   1.45  -33.6 -80.5  -73.7    66.1  -10.2   -3.04   -8.70 -6.92 -24.3 
#> 10  -9.97   33.2  61.1    2.00   31.3   60.8   -9.67   -1.11 -3.91  11.5 
#> # ℹ 161 more rows
#> # ℹ 40 more variables: `11` <dbl>, `12` <dbl>, `13` <dbl>, `14` <dbl>,
#> #   `15` <dbl>, `16` <dbl>, `17` <dbl>, `18` <dbl>, `19` <dbl>, `20` <dbl>,
#> #   `21` <dbl>, `22` <dbl>, `23` <dbl>, `24` <dbl>, `25` <dbl>, `26` <dbl>,
#> #   `27` <dbl>, `28` <dbl>, `29` <dbl>, `30` <dbl>, `31` <dbl>, `32` <dbl>,
#> #   `33` <dbl>, `34` <dbl>, `35` <dbl>, `36` <dbl>, `37` <dbl>, `38` <dbl>,
#> #   `39` <dbl>, `40` <dbl>, `41` <dbl>, `42` <dbl>, `43` <dbl>, `44` <dbl>, …
```
…
